Set up the required packages
…
Tidy up variable names

setnames(run, colnames(run), gsub("\\(\\)", "", colnames(run)))
setnames(run, colnames(run), gsub("-", "_", colnames(run)))
setnames(run, colnames(run), gsub("BodyBody", "Body", colnames(run)))

Create the second, tidy data set

and write it to an appropriately named file

summaryRun <- group_by(run, subject_id, activity_labels)
summarise_each(summaryRun, funs(mean))

## Source: local data frame [180 x 68]
## Groups: subject_id [?]
## 
##    subject_id    activity_labels tBodyAcc.mean...X tBodyAcc.mean...Y
##         <int>              <chr>             <dbl>             <dbl>
## 1           1             LAYING         0.2215982      -0.040513953
## 2           1            SITTING         0.2612376      -0.001308288
## 3           1           STANDING         0.2789176      -0.016137590
## 4           1            WALKING         0.2773308      -0.017383819
## 5           1 WALKING_DOWNSTAIRS         0.2891883      -0.009918505
## 6           1   WALKING_UPSTAIRS         0.2554617      -0.023953149
## 7           2             LAYING         0.2813734      -0.018158740
## 8           2            SITTING         0.2770874      -0.015687994
## 9           2           STANDING         0.2779115      -0.018420827
## 10          2            WALKING         0.2764266      -0.018594920
## # ... with 170 more rows, and 64 more variables: tBodyAcc.mean...Z <dbl>,
## #   tGravityAcc.mean...X <dbl>, tGravityAcc.mean...Y <dbl>,
## #   tGravityAcc.mean...Z <dbl>, tBodyAccJerk.mean...X <dbl>,
## #   tBodyAccJerk.mean...Y <dbl>, tBodyAccJerk.mean...Z <dbl>,
## #   tBodyGyro.mean...X <dbl>, tBodyGyro.mean...Y <dbl>,
## #   tBodyGyro.mean...Z <dbl>, tBodyGyroJerk.mean...X <dbl>,
## #   tBodyGyroJerk.mean...Y <dbl>, tBodyGyroJerk.mean...Z <dbl>,
## #   tBodyAccMag.mean.. <dbl>, tGravityAccMag.mean.. <dbl>,
## #   tBodyAccJerkMag.mean.. <dbl>, tBodyGyroMag.mean.. <dbl>,
…
