…
```r
summaryRun <- group_by(run, subject_id, activity_labels)
summarise_each(summaryRun, funs(mean))
```

```
## Source: local data frame [180 x 68]
## Groups: subject_id [?]
## 
##    subject_id    activity_labels tBodyAccMeanX tBodyAccMeanY tBodyAccMeanZ
##         <int>              <chr>         <dbl>         <dbl>         <dbl>
## 1           1             LAYING     0.2215982  -0.040513953    -0.1132036
## 2           1            SITTING     0.2612376  -0.001308288    -0.1045442
## 3           1           STANDING     0.2789176  -0.016137590    -0.1106018
## 4           1            WALKING     0.2773308  -0.017383819    -0.1111481
## 5           1 WALKING_DOWNSTAIRS     0.2891883  -0.009918505    -0.1075662
## 6           1   WALKING_UPSTAIRS     0.2554617  -0.023953149    -0.0973020
## 7           2             LAYING     0.2813734  -0.018158740    -0.1072456
## 8           2            SITTING     0.2770874  -0.015687994    -0.1092183
## 9           2           STANDING     0.2779115  -0.018420827    -0.1059085
## 10          2            WALKING     0.2764266  -0.018594920    -0.1055004
## # ... with 170 more rows, and 63 more variables: tGravityAccMeanX <dbl>,
## #   tGravityAccMeanY <dbl>, tGravityAccMeanZ <dbl>,
## #   tBodyAccJerkMeanX <dbl>, tBodyAccJerkMeanY <dbl>,
## #   tBodyAccJerkMeanZ <dbl>, tBodyGyroMeanX <dbl>, tBodyGyroMeanY <dbl>,
## #   tBodyGyroMeanZ <dbl>, tBodyGyroJerkMeanX <dbl>,
## #   tBodyGyroJerkMeanY <dbl>, tBodyGyroJerkMeanZ <dbl>,
## #   tBodyAccMagMean <dbl>, tGravityAccMagMean <dbl>,
## #   tBodyAccJerkMagMean <dbl>, tBodyGyroMagMean <dbl>,
## #   tBodyGyroJerkMagMean <dbl>, fBodyAccMeanX <dbl>, fBodyAccMeanY <dbl>,
…
